{
	"edges" : {
		"UP" : "CITY",
		"DOWN" : "CITY",
		"LEFT" : "CITY",
		"RIGHT" : "CITY",
		"detail" : [
			{
				"type" : "CITY",
				"sides" : ["UP", "DOWN", "LEFT", "RIGHT"]
			}
		]
	},
	"graphics" : {
		"city" : [
			[
				[0, 0],
				[0, 1],
				[1, 1],
				[1, 0]
			]
		],
		"shield" : ["shield"]
	}
}