{
	"edges" : {
		"UP" : "CITY",
		"DOWN" : "FARM",
		"LEFT" : "FARM",
		"RIGHT" : "FARM",
		"detail" : [
			{
				"type" : "FARM",
				"sides" : ["LEFT", "RIGHT", "DOWN"]
			}
		]
	},
	"graphics" : {
		"city" : ["city up"],
		"grass" : ["city T"]
	}
}