{
	"edges" : {
		"UP" : "CITY",
		"DOWN" : "FARM",
		"RIGHT" : "CITY",
		"LEFT" : "FARM",
		"detail" : [
			{
				"type" : "CITY",
				"sides" : ["UP", "RIGHT"]
			},
			{
				"type" : "FARM",
				"sides" : ["LEFT", "DOWN"]
			}
		]
	},
	"graphics" : {
		"city" : ["city corner"],
		"grass" : [
			[
				[0, 0],
				[1, 1],
				[0, 1]
			]
		]
	}
}